Preliminary Visualisations of Parliamentary Networks
…
nodes_tbl <- graph_representation %>%
  activate(nodes) %>%
  as_tibble %>%
  stringdist_left_join(party_members,max_dist = 2) %>%
  mutate(string_distance = stringdist::stringdist(name.x,name.y)) %>%
  mutate(string_distance = if_else(is.na(string_distance),Inf,string_distance)) %>%
  group_by(name.x) %>%
  summarise(party = party[which.min(string_distance)])

print(nodes_tbl)

## # A tibble: 155 x 2
##    name.x        party
##    <chr>         <chr>
##  1 Abbott, AJ    LP   
##  2 Albanese, AN  ALP  
##  3 Alexander, JG LP   
##  4 Aly, A        ALP  
##  5 Andrews, KJ   LP   
##  6 Andrews, KL   LP   
##  7 Bandt, AP     AG   
##  8 Banks, J      LP   
##  9 Bird, SL      ALP  
## 10 Bishop, JI    LP   
## # ... with 145 more rows
…
